<svg xmlns="http://www.w3.org/2000/svg" width="41" height="38" viewBox="0 0 41 38">
    <g fill="none" fill-rule="evenodd">
        <path fill="#E79934" d="M.076 28.744c.126-.198.324-.209.596-.033 6.18 3.646 12.92 5.496 20.217 5.551 4.866.036 9.676-.834 14.432-2.61l.541-.22a9.4 9.4 0 0 0 .504-.22c.374-.146.665-.07.874.23.21.3.138.572-.21.818-.45.32-1.024.687-1.722 1.104-2.145 1.25-4.535 2.213-7.172 2.888-2.637.676-5.209 1.004-7.716.986-3.873-.029-7.529-.733-10.97-2.112a30.244 30.244 0 0 1-9.229-5.785c-.149-.125-.222-.25-.22-.374 0-.075.025-.149.075-.223zm33.249.881a1.15 1.15 0 0 1 .226-.296c.623-.418 1.22-.698 1.793-.843a12.096 12.096 0 0 1 2.759-.389 2.23 2.23 0 0 1 .707.043c1.117.107 1.786.299 2.007.573.098.15.146.373.144.671l-.002.261c-.006.87-.25 1.892-.73 3.067-.481 1.175-1.146 2.12-1.995 2.834-.125.099-.237.148-.337.147a.326.326 0 0 1-.148-.038c-.15-.077-.185-.214-.11-.412.936-2.153 1.406-3.65 1.413-4.495.002-.273-.047-.472-.145-.597-.246-.3-.94-.453-2.082-.462-.422-.003-.92.017-1.49.064-.621.07-1.193.14-1.715.21-.15-.002-.248-.027-.297-.076-.05-.05-.061-.1-.036-.15 0-.024.013-.063.038-.111z"/>
        <path fill="#292929" d="M24.355 14.066c-.006.794-.02 1.365-.032 1.714-.012.348-.093.803-.233 1.354a5.604 5.604 0 0 1-.63 1.545c-.57 1.06-1.389 1.723-2.428 1.996a2.041 2.041 0 0 0-.28.027 1.513 1.513 0 0 1-.32.036c-.824-.006-1.47-.301-1.95-.886s-.716-1.361-.709-2.33c.016-2.14 1.121-3.506 3.314-4.11.737-.198 1.832-.286 3.275-.276l-.007.93zm7.804 6.692a66.888 66.888 0 0 1-.844-1.15c-.172-.233-.353-.622-.533-1.156a5.393 5.393 0 0 1-.268-1.774l.067-9.006c.001-.096-.006-.416-.03-.95-.017-.532-.053-.88-.1-1.045a16.074 16.074 0 0 1-.216-.874c-.094-.426-.208-.747-.332-.97a6.709 6.709 0 0 0-.498-.77 6.972 6.972 0 0 0-.68-.808C27.145.78 24.944.028 22.115.007L21.187 0c-2.219.11-4.15.696-5.804 1.749-1.664 1.052-2.713 2.68-3.155 4.896-.02.096-.03.183-.03.25-.004.35.198.574.623.684l4.276.555c.398-.075.652-.364.752-.857.181-.792.573-1.41 1.167-1.85.603-.441 1.312-.697 2.136-.77l.29.003c1.124.009 1.934.392 2.452 1.132.344.555.511 1.62.5 3.21l-.006.639c-1.51.105-2.607.203-3.275.266-1.968.237-3.617.63-4.967 1.192-1.467.609-2.626 1.52-3.488 2.734-.85 1.205-1.279 2.673-1.29 4.378-.018 2.169.58 3.839 1.801 5.03 1.221 1.18 2.786 1.783 4.703 1.797 1.24.009 2.276-.1 3.13-.344 1.34-.368 2.712-1.297 4.118-2.797.096.116.268.36.508.73.25.36.431.603.536.73.116.117.298.322.558.595.26.273.557.566.903.868.425.178.784.152 1.086-.07.165-.143 1.296-1.103 3.372-2.88.195-.143.293-.316.294-.52.001-.174-.065-.368-.218-.592z"/>
    </g>
</svg>
