<svg xmlns="http://www.w3.org/2000/svg" width="81" height="60" viewBox="0 0 81 60">
    <g fill="none" fill-rule="evenodd">
        <path fill="#50504F" d="M80.797 57.893l-3.765-4.598 3.378-2.575c.387-.276.483-.737.194-1.104-.194-.184-.386-.368-.676-.368-.194 0-.386.092-.58.184l-4.826 3.77v-8.277c0-.46-.386-.736-.772-.736a.743.743 0 0 0-.772.736v13.336c0 .46.386.736.772.736a.743.743 0 0 0 .772-.736v-3.219l1.159-.827 3.764 4.506c.193.184.386.368.676.368a.744.744 0 0 0 .772-.736c.096-.184.096-.368-.096-.46zm-13.129-4.506c-1.255-.46-2.22-.736-2.22-1.656 0-.92 1.159-1.104 1.738-1.104.869-.092 1.737.276 2.316.828.194.184.387.184.58.184.386 0 .772-.275.772-.736a.683.683 0 0 0-.194-.46c-.868-.92-2.026-1.379-3.377-1.379-2.124 0-3.379 1.012-3.379 2.575 0 1.932 1.834 2.576 3.379 3.035 1.158.368 2.22.736 2.22 1.564 0 1.103-1.352 1.38-2.124 1.38-.966 0-1.93-.277-2.606-1.013-.194-.183-.387-.276-.58-.276-.386 0-.772.276-.772.737 0 .183.097.368.193.46.965 1.011 2.317 1.563 3.765 1.563 2.413 0 3.765-1.104 3.765-2.76-.194-1.839-1.931-2.39-3.476-2.942zm-9.846-2.76c1.738 0 2.51.92 2.606 2.668h-5.502c0-1.472 1.158-2.668 2.703-2.668h.193zm4.248 2.575c0-.92-.29-1.838-.773-2.575-.772-1.01-2.124-1.655-3.475-1.563-2.896 0-4.536 1.84-4.536 4.966 0 3.128 1.64 5.059 4.73 5.059 1.254 0 2.51-.368 3.475-1.196.192-.092.29-.368.29-.552a.744.744 0 0 0-.773-.736c-.193 0-.29.092-.483.185-.676.551-1.544.827-2.51.827-1.64.093-3.089-1.195-3.089-2.758v-.277h6.082c1.062.092 1.062-.736 1.062-1.38zm-14.963 4.599c-1.93 0-2.895-1.196-2.895-3.586 0-2.392.964-3.588 2.895-3.588 1.158.093 2.22.737 2.703 1.656v2.76c.194 1.379-.772 2.574-2.124 2.758h-.579zm3.572-13.612a.743.743 0 0 0-.772.736v5.243c-.773-.736-1.738-1.104-2.8-1.104-2.895 0-4.44 1.656-4.44 4.966 0 3.311 1.64 5.059 4.537 5.059 2.22.184 4.15-1.38 4.343-3.403V44.833c-.096-.368-.482-.644-.868-.644zm-13.707 4.967c-1.062 0-2.028.368-2.704 1.103v-5.241c0-.46-.29-.829-.772-.829H33.4a.743.743 0 0 0-.772.736v13.336c0 .46.29.828.772.828.483 0 .868-.276.868-.736v-5.058c0-1.84.87-2.76 2.704-2.76 1.833 0 2.413.736 2.413 2.576v5.15c0 .46.29.828.772.828h.097a.743.743 0 0 0 .772-.736v-5.426c0-2.483-1.351-3.771-4.054-3.771zm-9.75 4.231c-1.255-.46-2.22-.736-2.22-1.656 0-.92 1.158-1.104 1.737-1.104.869-.092 1.641.276 2.22.828a.784.784 0 0 0 1.062 0c.193-.184.193-.367.193-.552a.683.683 0 0 0-.193-.46c-.869-.92-2.027-1.379-3.378-1.379-2.124 0-3.379 1.012-3.379 2.575 0 1.932 1.834 2.576 3.379 3.035 1.158.368 2.22.736 2.22 1.564 0 1.103-1.351 1.38-2.124 1.38-.966 0-1.93-.277-2.606-1.013-.194-.183-.386-.276-.58-.276-.386 0-.772.276-.772.737 0 .183.097.368.194.46.964 1.011 2.316 1.655 3.764 1.655 2.413 0 3.765-1.104 3.765-2.76 0-1.93-1.737-2.482-3.282-3.034zm-9.846-2.76c1.737 0 2.51.92 2.606 2.668H14.48c0-1.472 1.158-2.668 2.703-2.668h.193zm4.247 2.668c0-.92-.29-1.84-.772-2.575-.773-1.013-2.124-1.656-3.475-1.564-2.896 0-4.537 1.84-4.537 4.966 0 3.127 1.641 5.06 4.73 5.06 1.254 0 2.51-.369 3.475-1.197.193-.092.29-.368.29-.551a.743.743 0 0 0-.772-.737c-.194 0-.29.093-.484.184-.676.553-1.544.829-2.509.829-1.641.09-3.089-1.196-3.089-2.76v-.276h6.082c1.06 0 1.06-.828 1.06-1.38zm-10.04-4.14c-1.06-.09-2.123.461-2.8 1.289v-.46c.098-.46-.289-.828-.77-.92-.483-.092-.87.276-.966.736v8.461c0 .46.29.736.772.828h.096c.483 0 .869-.276.869-.736V53.663c0-1.932 1.062-3.036 2.8-3.036.483 0 .772-.46.675-.827 0-.368-.29-.644-.675-.644zm-6.37-4.413c-1.93-.185-3.669 1.195-3.862 3.127V49.524H.772a.743.743 0 0 0-.772.735c0 .368.386.736.772.736h.58v7.45c0 .46.289.828.771.828h.097c.483 0 .869-.276.869-.736V50.903h1.834a.743.743 0 0 0 .773-.735c0-.368-.387-.736-.773-.736H3.089v-1.104c-.096-1.011.676-2.023 1.738-2.116h.482c.387 0 .772-.275.772-.735a.901.901 0 0 0-.869-.735z"/>
        <path fill="#25C16F" d="M39.756.098h15.088c2.816 0 5.029 2.22 5.029 5.046v15.14c0 11.103-9.053 20.187-20.117 20.187h-.201C28.49 39.462 20.243 29.772 21.249 18.67c.805-9.892 8.65-17.563 18.507-18.572"/>
        <path fill="#FFF" d="M40.197 10C35.199 10 31 13.964 31 19.118v6.143c0 1.586 1.4 2.973 3 2.973h2.598V21.1H33v-1.981c0-3.965 3.198-6.938 6.996-6.938 3.999 0 6.998 3.171 6.998 6.938v1.981h-3.599v7.135h2.4v.199c0 1.585-1.2 2.775-2.8 2.775h-2.798c-.2 0-.4.197-.4.396 0 .198.2.396.4.396h2.799c1.998 0 3.598-1.585 3.598-3.567v-.397c1.4-.396 2.399-1.586 2.399-2.973v-5.945c.2-4.956-3.798-9.118-8.796-9.118"/>
    </g>
</svg>
